{"info":{"count":287,"pages":15,"next":"https://rickandmortyapi.com/api/character?page=2&status=dead","prev":null},"results":[{"id":8,"name":"Adjudicator Rick","status":"Dead","species":"Human","type":"","gender":"Male","origin":{"name":"unknown","url":""},"location":{"name":"Citadel of Ricks","url":"https://rickandmortyapi.com/api/location/3"},"image":"https://rickandmortyapi.com/api/character/avatar/8.jpeg","episode":["https://rickandmortyapi.com/api/episode/28"],"url":"https://rickandmortyapi.com/api/character/8","created":"2017-11-04T20:03:34.737Z"},{"id":9,"name":"Agency Director","status":"Dead","species":"Human","type":"","gender":"Male","origin":{"name":"Earth (Replacement Dimension)","url":"https://rickandmortyapi.com/api/location/20"},"location":{"name":"Earth (Replacement Dimension)","url":"https://rickandmortyapi.com/api/location/20"},"image":"https://rickandmortyapi.com/api/character/avatar/9.jpeg","episode":["https://rickandmortyapi.com/api/episode/24"],"url":"https://rickandmortyapi.com/api/character/9","created":"2017-11-04T20:06:54.976Z"},{"id":10,"name":"Alan Rails","status":"Dead","species":"Human","type":"Superhuman (Ghost trains summoner)","gender":"Male","origin":{"name":"unknown","url":""},"location":{"name":"Worldender's lair","url":"https://rickandmortyapi.com/api/location/4"},"image":"https://rickandmortyapi.com/api/character/avatar/10.jpeg","episode":["https://rickandmortyapi.com/api/episode/25"],"url":"https://rickandmortyapi.com/api/character/10","created":"2017-11-04T20:19:09.017Z"},{"id":11,"name":"Albert Einstein","status":"Dead","species":"Human","type":"","gender":"Male","origin":{"name":"Earth (C-137)","url":"https://rickandmortyapi.com/api/location/1"},"location":{"name":"Earth (Replacement Dimension)","url":"https://rickandmortyapi.com/api/location/20"},"image":"https://rickandmortyapi.com/api/character/avatar/11.jpeg","episode":["https://rickandmortyapi.com/api/episode/12"],"url":"https://rickandmortyapi.com/api/character/11","created":"2017-11-04T20:20:20.965Z"},{"id":12,"name":"Alexander","status":"Dead","species":"Human","type":"","gender":"Male","origin":{"name":"Earth (C-137)","url":"https://rickandmortyapi.com/api/location/1"},"location":{"name":"Anatomy Park","url":"https://rickandmortyapi.com/api/location/5"},"image":"https://rickandmortyapi.com/api/character/avatar/12.jpeg","episode":["https://rickandmortyapi.com/api/episode/3"],"url":"https://rickandmortyapi.com/api/character/12","created":"2017-11-04T20:32:33.144Z"}]}
